verilated/MyHDL_sim/sdram_test_tb.vcd
$date
    Wed Jul 25 16:03:17 2018
$end
$version
    MyHDL 1.0dev
$end
$timescale
    1ns
$end

$scope module sdram_test_tb $end
$var reg 1 ! pb $end
$var reg 1 " sdram_return_clk $end
$var reg 4 # led_status $end
$var reg 1 $ sdram_clk $end
$var reg 1 % clk $end
$scope module dut $end
$var reg 1 & reset $end
$var reg 6 ' debounce_cntr $end
$var reg 1 ( pb_prev $end
$var reg 1 ) clk $end
$var reg 1 * pb_debounced $end
$var reg 1 + pb $end
$var reg 1 " sdram_clk_i $end
$var reg 1 ! pb_i $end
$var reg 1 $ sdram_clk_o $end
$var reg 1 , initialized $end
$var reg 4 # led_status $end
$var reg 1 % master_clk_i $end
$var reg 8 - test_status $end
$scope module sdramCntl_inst $end
$var reg 3 . cmd_r $end
$var reg 13 / sAddr_x $end
$var reg 3 0 cmd_x $end
$var reg 13 1 row_s $end
$var reg 13 2 sAddr_r $end
$var reg 16 3 sdramData_x $end
$var reg 1 4 activateInProgress_s $end
$var reg 1 5 host_intf_done_o $end
$var reg 1 6 sDataDir_x $end
$var reg 1 7 sDataDir_r $end
$var reg 1 8 sd_intf_ras $end
$var reg 2 9 ba_x $end
$var reg 5 : rdPipeline_r $end
$var reg 1 ; sd_intf_cs $end
$var reg 14 < rfshCntr_x $end
$var reg 2 = ba_r $end
$var reg 5 > rdPipeline_x $end
$var reg 16 ? host_intf_data_o $end
$var reg 1 @ sd_intf_dqmh $end
$var reg 14 A rfshCntr_r $end
$var reg 16 B sDriver $end
$var reg 2 C activeBank_x $end
$var reg 1 D host_intf_wr_i $end
$var reg 1 ) clk_i $end
$var reg 1 E doActivate_s $end
$var reg 16 F host_intf_data_i $end
$var reg 1 G sd_intf_cas $end
$var reg 2 H bank_s $end
$var reg 10 I refTimer_r $end
$var reg 1 J rdInProgress_s $end
$var reg 13 K sd_intf_addr $end
$var reg 1 L sd_intf_we $end
$var reg 10 M refTimer_x $end
$var reg 1 N writeInProgress_s $end
$var real 1 O state_x $end
$var reg 16 P sData_r $end
$var reg 9 Q col_s $end
$var real 1 R state_r $end
$var reg 16 S sData_x $end
$var reg 11 T timer_x $end
$var reg 5 U wrPipeline_x $end
$var reg 2 V activeBank_r $end
$var reg 2 W sd_intf_bs $end
$var reg 2 X wrTimer_x $end
$var reg 1 Y host_intf_rdPending_o $end
$var reg 24 Z host_intf_addr_i $end
$var reg 5 [ wrPipeline_r $end
$var reg 16 \ sdramData_r $end
$var reg 2 ] wrTimer_r $end
$var reg 16 ^ sd_intf_dq $end
$var reg 11 _ timer_r $end
$var reg 1 ` sd_intf_dqml $end
$var reg 1 a sd_intf_cke $end
$var reg 1 b host_intf_rd_i $end
$var reg 3 c rasTimer_x $end
$var reg 3 d rasTimer_r $end
$scope module activeRow_x $end
$var reg 13 e activeRow_x(0) $end
$var reg 13 f activeRow_x(1) $end
$var reg 13 g activeRow_x(2) $end
$var reg 13 h activeRow_x(3) $end
$upscope $end
$scope module activeRow_r $end
$var reg 13 i activeRow_r(0) $end
$var reg 13 j activeRow_r(1) $end
$var reg 13 k activeRow_r(2) $end
$var reg 13 l activeRow_r(3) $end
$upscope $end
$scope module activeFlag_x $end
$var reg 1 m activeFlag_x(0) $end
$var reg 1 n activeFlag_x(1) $end
$var reg 1 o activeFlag_x(2) $end
$var reg 1 p activeFlag_x(3) $end
$upscope $end
$scope module activeFlag_r $end
$var reg 1 q activeFlag_r(0) $end
$var reg 1 r activeFlag_r(1) $end
$var reg 1 s activeFlag_r(2) $end
$var reg 1 t activeFlag_r(3) $end
$upscope $end
$upscope $end
$scope module memory_test_inst $end
$var reg 8 - status_o $end
$var reg 16 F host_intf_data_i $end
$var reg 1 u host_intf_rst_i $end
$var reg 1 b host_intf_rd_i $end
$var reg 16 ? host_intf_data_o $end
$var reg 1 & reset_i $end
$var reg 27 v address $end
$var real 1 w test_state $end
$var reg 1 x rand_load $end
$var reg 1 5 host_intf_done_o $end
$var reg 1 D host_intf_wr_i $end
$var reg 1 ) clk_i $end
$var reg 1 y wr_enable $end
$var reg 1 z error $end
$var reg 4 # led_status $end
$var reg 24 Z host_intf_addr_i $end
$var reg 16 { rand_val $end
$var reg 1 | rand_enable $end
$var reg 1 } rd_enable $end
$scope module rand_gen $end
$var reg 1 ) clk_i $end
$var reg 16 { rand_o $end
$var reg 1 | enbl_i $end
$var reg 1 x load_i $end
$var reg 16 ~ shfreg $end
$upscope $end
$upscope $end
$upscope $end
$scope module sdram_inst $end
$var reg 1 a sd_intf_cke $end
$var reg 2 W sd_intf_bs $end
$var reg 1 $ clk $end
$var reg 13 K sd_intf_addr $end
$var reg 20 "! rfsh_timer $end
$var real 1 "" curr_command $end
$var reg 13 "# rfsh_count $end
$scope module control_logic_inst $end
$var real 1 "" curr_command $end
$var reg 1 L sd_intf_we $end
$var reg 1 G sd_intf_cas $end
$var reg 1 ; sd_intf_cs $end
$var reg 1 8 sd_intf_ras $end
$upscope $end
$upscope $end
$upscope $end

$enddefinitions $end
$dumpvars
1!
0"
b0000 #
0$
0%
0&
b110000 '
0(
0)
0*
0+
0,
b00000000 -
b111 .
b0000000000000 /
b111 0
b0000000000000 1
b0000000000000 2
b0000000000000000 3
04
05
06
07
08
b00 9
b00000 :
0;
b00000000000000 <
b00 =
b00000 >
b0000000000000000 ?
0@
b00000000000000 A
bzzzzzzzzzzzzzzzz B
b00 C
0D
0E
b0000000000000000 F
0G
b00 H
b1100001110 I
0J
b0000000000000 K
0L
b1100001110 M
0N
sINITWAIT O
b0000000000000000 P
b000000000 Q
sINITWAIT R
b0000000000000000 S
b00000000000 T
b00000 U
b00 V
b00 W
b00 X
0Y
b000000000000000000000000 Z
b00000 [
b0000000000000000 \
b00 ]
bzzzzzzzzzzzzzzzz ^
b00000000000 _
0`
0a
0b
b000 c
b000 d
b0000000000000 e
b0000000000000 f
b0000000000000 g
b0000000000000 h
b0000000000000 i
b0000000000000 j
b0000000000000 k
b0000000000000 l
0m
0n
0o
0p
0q
0r
0s
0t
0u
b000000000000000000000000000 v
sINIT w
0x
0y
0z
b0000000000000000 {
0|
0}
b0000000000000001 ~
b00000000000000000001 "!
sINVALID ""
b0000000000000 "#
$end
b0000000000000001 {
1E
1a
18
1G
1L
b1100001101 M
sINITPCHG O
b11111010000 T
1&
sLOAD_MODE ""
1u
b0000000000000001 F
sNOP ""
b0000000000000001 S
#140
1%
1$
b00000000000000000010 "!
1"
1)
1(
1,
sWRITE w
b00110001 -
b0001 #
1x
#141
0%
0$
0"
0)
#142
1%
1$
b00000000000000000011 "!
1"
1)
b0000000000101010 ~
b101111 '
b0000000000101010 {
b0000000000101010 F
b0000000000101010 S
#143
0%
0$
0"
0)
#144
1%
1$
b00000000000000000100 "!
1"
1)
b101110 '
#145
0%
0$
0"
0)
#146
1%
1$
b00000000000000000101 "!
1"
1)
b101101 '
#147
0%
0$
0"
0)
#148
1%
1$
b00000000000000000110 "!
1"
1)
b101100 '
#149
0%
0$
0"
0)
#150
1%
1$
b00000000000000000111 "!
1"
1)
b101011 '
#151
0%
0$
0"
0)
#152
1%
1$
b00000000000000001000 "!
1"
1)
b101010 '
#153
0%
0$
0"
0)
#154
1%
1$
b00000000000000001001 "!
1"
1)
b101001 '
#155
0%
0$
0"
0)
#156
1%
1$
b00000000000000001010 "!
1"
1)
b101000 '
#157
0%
0$
0"
0)
#158
1%
1$
b00000000000000001011 "!
1"
1)
b100111 '
#159
0%
0$
0"
0)
#160
1%
1$
b00000000000000001100 "!
1"
1)
b100110 '
#161
0%
0$
0"
0)
#162
1%
1$
b00000000000000001101 "!
1"
1)
b100101 '
#163
0%
0$
0"
0)
#164
1%
1$
b00000000000000001110 "!
1"
1)
b100100 '
#165
0%
0$
0"
0)
#166
1%
1$
b00000000000000001111 "!
1"
1)
b100011 '
#167
0%
0$
0"
0)
#168
1%
1$
b00000000000000010000 "!
1"
1)
b100010 '
#169
0%
0$
0"
0)
#170
1%
1$
b00000000000000010001 "!
1"
1)
b100001 '
#171
0%
0$
0"
0)
#172
1%
1$
b00000000000000010010 "!
1"
1)
b100000 '
#173
0%
0$
0"
0)
#174
1%
1$
b00000000000000010011 "!
1"
1)
b011111 '
#175
0%
0$
0"
0)
#176
1%
1$
b00000000000000010100 "!
1"
1)
b011110 '
#177
0%
0$
0"
0)
#178
1%
1$
b00000000000000010101 "!
1"
1)
b011101 '
#179
0%
0$
0"
0)
#180
1%
1$
b00000000000000010110 "!
1"
1)
b011100 '
#181
0%
0$
0"
0)
#182
1%
1$
b00000000000000010111 "!
1"
1)
b011011 '
#183
0%
0$
0"
0)
#184
1%
1$
b00000000000000011000 "!
1"
1)
b011010 '
#185
0%
0$
0"
0)
#186
1%
1$
b00000000000000011001 "!
1"
1)
b011001 '
#187
0%
0$
0"
0)
#188
1%
1$
b00000000000000011010 "!
1"
1)
b011000 '
#189
0%
0$
0"
0)
#190
1%
1$
b00000000000000011011 "!
1"
1)
b010111 '
#191
0%
0$
0"
0)
#192
1%
1$
b00000000000000011100 "!
1"
1)
b010110 '
#193
0%
0$
0"
0)
#194
1%
1$
b00000000000000011101 "!
1"
1)
b010101 '
#195
0%
0$
0"
0)
#196
1%
1$
b00000000000000011110 "!
1"
1)
b010100 '
#197
0%
0$
0"
0)
#198
1%
1$
b00000000000000011111 "!
1"
1)
b010011 '
#199
0%
0$
0"
0)
#200
1%
1$
b00000000000000100000 "!
1"
1)
b010010 '
#201
0%
0$
0"
0)
#202
1%
1$
b00000000000000100001 "!
1"
1)
b010001 '
#203
0%
0$
0"
0)
#204
1%
1$
b00000000000000100010 "!
1"
1)
b010000 '
#205
0%
0$
0"
0)
#206
1%
1$
b00000000000000100011 "!
1"
1)
b001111 '
#207
0%
0$
0"
0)
#208
1%
1$
b00000000000000100100 "!
1"
1)
b001110 '
#209
0%
0$
0"
0)
#210
1%
1$
b00000000000000100101 "!
1"
1)
b001101 '
#211
0%
0$
0"
0)
#212
1%
1$
b00000000000000100110 "!
1"
1)
b001100 '
#213
0%
0$
0"
0)
#214
1%
1$
b00000000000000100111 "!
1"
1)
b001011 '
#215
0%
0$
0"
0)
#216
1%
1$
b00000000000000101000 "!
1"
1)
b001010 '
#217
0%
0$
0"
0)
#218
1%
1$
b00000000000000101001 "!
1"
1)
b001001 '
#219
0%
0$
0"
0)
#220
1%
1$
b00000000000000101010 "!
1"
1)
b001000 '
#221
0%
0$
0"
0)
#222
1%
1$
b00000000000000101011 "!
1"
1)
b000111 '
#223
0%
0$
0"
0)
#224
1%
1$
b00000000000000101100 "!
1"
1)
b000110 '
#225
0%
0$
0"
0)
#226
1%
1$
b00000000000000101101 "!
1"
1)
b000101 '
#227
0%
0$
0"
0)
#228
1%
1$
b00000000000000101110 "!
1"
1)
b000100 '
#229
0%
0$
0"
0)
#230
1%
1$
b00000000000000101111 "!
1"
1)
b000011 '
#231
0%
0$
0"
0)
#232
1%
1$
b00000000000000110000 "!
1"
1)
b000010 '
#233
0%
0$
0"
0)
#234
1%
1$
b00000000000000110001 "!
1"
1)
b000001 '
#235
0%
0$
0"
0)
#236
1%
1$
b00000000000000110010 "!
1"
1)
b000000 '
#237
0%
0$
0"
0)
#238
1%
1$
b00000000000000110011 "!
1"
1)
1*
b000001 '
0&
0u
#239
0%
0$
0"
0)
#240
1%
1$
b00000000000000110100 "!
1"
1)
sINITPCHG R
b0000000000101010 P
b11111010000 _
b1100001101 I
b000000 '
0x
b00110010 -
b0010 #
1y
1D
b1100001100 M
b11111001111 T
#241
0%
0$
0"
0)
#242
1%
1$
b00000000000000110101 "!
1"
1)
b000001 '
b11111001111 _
b1100001100 I
b1100001011 M
b11111001110 T
#243
0%
0$
0"
0)
#244
1%
1$
b00000000000000110110 "!
1"
1)
b11111001110 _
b1100001011 I
b000000 '
b1100001010 M
b11111001101 T
#245
0%
0$
0"
0)
#246
1%
1$
b00000000000000110111 "!
1"
1)
b000001 '
b11111001101 _
b1100001010 I
b1100001001 M
b11111001100 T
#247
0%
0$
0"
0)
#248
1%
1$
b00000000000000111000 "!
1"
1)
b11111001100 _
b1100001001 I
b000000 '
b1100001000 M
b11111001011 T
#249
0%
0$
0"
0)
#250
1%
1$
b00000000000000111001 "!
1"
1)
b000001 '
b11111001011 _
b1100001000 I
b1100000111 M
b11111001010 T
#251
0%
0$
0"
0)
#252
1%
1$
b00000000000000111010 "!
1"
1)
b11111001010 _
b1100000111 I
b000000 '
b1100000110 M
b11111001001 T
#253
0%
0$
0"
0)
#254
1%
1$
b00000000000000111011 "!
1"
1)
b000001 '
b11111001001 _
b1100000110 I
b1100000101 M
b11111001000 T
#255
0%
0$
0"
0)
#256
1%
1$
b00000000000000111100 "!
1"
1)
b11111001000 _
b1100000101 I
b000000 '
b1100000100 M
b11111000111 T
#257
0%
0$
0"
0)
#258
1%
1$
b00000000000000111101 "!
1"
1)
b000001 '
b11111000111 _
b1100000100 I
b1100000011 M
b11111000110 T
#259
0%
0$
0"
0)
#260
1%
1$
b00000000000000111110 "!
1"
1)
b11111000110 _
b1100000011 I
b000000 '
b1100000010 M
b11111000101 T
#261
0%
0$
0"
0)
#262
1%
1$
b00000000000000111111 "!
1"
1)
b000001 '
b11111000101 _
b1100000010 I
b1100000001 M
b11111000100 T
#263
0%
0$
0"
0)
#264
1%
1$
b00000000000001000000 "!
1"
1)
b11111000100 _
b1100000001 I
b000000 '
b1100000000 M
b11111000011 T
#265
0%
0$
0"
0)
#266
1%
1$
b00000000000001000001 "!
1"
1)
b000001 '
b11111000011 _
b1100000000 I
b1011111111 M
b11111000010 T
#267
0%
0$
0"
0)
#268
1%
1$
b00000000000001000010 "!
1"
1)
b11111000010 _
b1011111111 I
b000000 '
b1011111110 M
b11111000001 T
#269
0%
0$
0"
0)
#270
1%
1$
b00000000000001000011 "!
1"
1)
b000001 '
b11111000001 _
b1011111110 I
b1011111101 M
b11111000000 T
#271
0%
0$
0"
0)
#272
1%
1$
b00000000000001000100 "!
1"
1)
b11111000000 _
b1011111101 I
b000000 '
b1011111100 M
b11110111111 T
#273
0%
0$
0"
0)
#274
1%
1$
b00000000000001000101 "!
1"
1)
b000001 '
b11110111111 _
b1011111100 I
b1011111011 M
b11110111110 T
#275
0%
0$
0"
0)
#276
1%
1$
b00000000000001000110 "!
1"
1)
b11110111110 _
b1011111011 I
b000000 '
b1011111010 M
b11110111101 T
#277
0%
0$
0"
0)
#278
1%
1$
b00000000000001000111 "!
1"
1)
b000001 '
b11110111101 _
b1011111010 I
b1011111001 M
b11110111100 T
#279
0%
0$
0"
0)
#280
1%
1$
b00000000000001001000 "!
1"
1)
b11110111100 _
b1011111001 I
b000000 '
b1011111000 M
b11110111011 T
#281
0%
0$
0"
0)
#282
1%
1$
b00000000000001001001 "!
1"
1)
b000001 '
b11110111011 _
b1011111000 I
b1011110111 M
b11110111010 T
#283
0%
0$
0"
0)
#284
1%
1$
b00000000000001001010 "!
1"
1)
b11110111010 _
b1011110111 I
b000000 '
b1011110110 M
b11110111001 T
#285
0%
0$
0"
0)
#286
1%
1$
b00000000000001001011 "!
1"
1)
b000001 '
b11110111001 _
b1011110110 I
b1011110101 M
b11110111000 T
#287
0%
0$
0"
0)
#288
1%
1$
b00000000000001001100 "!
1"
1)
b11110111000 _
b1011110101 I
b000000 '
b1011110100 M
b11110110111 T
#289
0%
0$
0"
0)
#290
1%
1$
b00000000000001001101 "!
1"
1)
b000001 '
b11110110111 _
b1011110100 I
b1011110011 M
b11110110110 T
#291
0%
0$
0"
0)
#292
1%
1$
b00000000000001001110 "!
1"
1)
b11110110110 _
b1011110011 I
b000000 '
b1011110010 M
b11110110101 T
#293
0%
0$
0"
0)
#294
1%
1$
b00000000000001001111 "!
1"
1)
b000001 '
b11110110101 _
b1011110010 I
b1011110001 M
b11110110100 T
#295
0%
0$
0"
0)
#296
1%
1$
b00000000000001010000 "!
1"
1)
b11110110100 _
b1011110001 I
b000000 '
b1011110000 M
b11110110011 T
#297
0%
0$
0"
0)
#298
1%
1$
b00000000000001010001 "!
1"
1)
b000001 '
b11110110011 _
b1011110000 I
b1011101111 M
b11110110010 T
#299
0%
0$
0"
0)
#300
1%
1$
b00000000000001010010 "!
1"
1)
b11110110010 _
b1011101111 I
b000000 '
b1011101110 M
b11110110001 T
#301
0%
0$
0"
0)
#302
1%
1$
b00000000000001010011 "!
1"
1)
b000001 '
b11110110001 _
b1011101110 I
b1011101101 M
b11110110000 T
#303
0%
0$
0"
0)
#304
1%
1$
b00000000000001010100 "!
1"
1)
b11110110000 _
b1011101101 I
b000000 '
b1011101100 M
b11110101111 T
#305
0%
0$
0"
0)
#306
1%
1$
b00000000000001010101 "!
1"
1)
b000001 '
b11110101111 _
b1011101100 I
b1011101011 M
b11110101110 T
#307
0%
0$
0"
0)
#308
1%
1$
b00000000000001010110 "!
1"
1)
b11110101110 _
b1011101011 I
b000000 '
b1011101010 M
b11110101101 T
#309
0%
0$
0"
0)
#310
1%
1$
b00000000000001010111 "!
1"
1)
b000001 '
b11110101101 _
b1011101010 I
b1011101001 M
b11110101100 T
#311
0%
0$
0"
0)
#312
1%
1$
b00000000000001011000 "!
1"
1)
b11110101100 _
b1011101001 I
b000000 '
b1011101000 M
b11110101011 T
#313
0%
0$
0"
0)
#314
1%
1$
b00000000000001011001 "!
1"
1)
b000001 '
b11110101011 _
b1011101000 I
b1011100111 M
b11110101010 T
#315
0%
0$
0"
0)
#316
1%
1$
b00000000000001011010 "!
1"
1)
b11110101010 _
b1011100111 I
b000000 '
b1011100110 M
b11110101001 T
#317
0%
0$
0"
0)
#318
1%
1$
b00000000000001011011 "!
1"
1)
b000001 '
b11110101001 _
b1011100110 I
b1011100101 M
b11110101000 T
#319
0%
0$
0"
0)
#320
1%
1$
b00000000000001011100 "!
1"
1)
b11110101000 _
b1011100101 I
b000000 '
b1011100100 M
b11110100111 T
#321
0%
0$
0"
0)
#322
1%
1$
b00000000000001011101 "!
1"
1)
b000001 '
b11110100111 _
b1011100100 I
b1011100011 M
b11110100110 T
#323
0%
0$
0"
0)
#324
1%
1$
b00000000000001011110 "!
1"
1)
b11110100110 _
b1011100011 I
b000000 '
b1011100010 M
b11110100101 T
#325
0%
0$
0"
0)
#326
1%
1$
b00000000000001011111 "!
1"
1)
b000001 '
b11110100101 _
b1011100010 I
b1011100001 M
b11110100100 T
#327
0%
0$
0"
0)
#328
1%
1$
b00000000000001100000 "!
1"
1)
b11110100100 _
b1011100001 I
b000000 '
b1011100000 M
b11110100011 T
#329
0%
0$
0"
0)
#330
1%
1$
b00000000000001100001 "!
1"
1)
b000001 '
b11110100011 _
b1011100000 I
b1011011111 M
b11110100010 T
#331
0%
0$
0"
0)
#332
1%
1$
b00000000000001100010 "!
1"
1)
b11110100010 _
b1011011111 I
b000000 '
b1011011110 M
b11110100001 T
#333
0%
0$
0"
0)
#334
1%
1$
b00000000000001100011 "!
1"
1)
b000001 '
b11110100001 _
b1011011110 I
b1011011101 M
b11110100000 T
#335
0%
0$
0"
0)
#336
1%
1$
b00000000000001100100 "!
1"
1)
b11110100000 _
b1011011101 I
b000000 '
b1011011100 M
b11110011111 T
#337
0%
0$
0"
0)
#338
1%
1$
b00000000000001100101 "!
1"
1)
b000001 '
b11110011111 _
b1011011100 I
b1011011011 M
b11110011110 T
#339
0%
0$
0"
0)
#340
1%
1$
b00000000000001100110 "!
1"
1)
b11110011110 _
b1011011011 I
b000000 '
b1011011010 M
b11110011101 T
#341
0%
0$
0"
0)
#342
1%
1$
b00000000000001100111 "!
1"
1)
b000001 '
b11110011101 _
b1011011010 I
b1011011001 M
b11110011100 T
#343
0%
0$
0"
0)
#344
1%
1$
b00000000000001101000 "!
1"
1)
b11110011100 _
b1011011001 I
b000000 '
b1011011000 M
b11110011011 T
#345
0%
0$
0"
0)
#346
1%
1$
b00000000000001101001 "!
1"
1)
b000001 '
b11110011011 _
b1011011000 I
b1011010111 M
b11110011010 T
#347
0%
0$
0"
0)
#348
1%
1$
b00000000000001101010 "!
1"
1)
b11110011010 _
b1011010111 I
b000000 '
b1011010110 M
b11110011001 T
#349
0%
0$
0"
0)
#350
1%
1$
b00000000000001101011 "!
1"
1)
b000001 '
b11110011001 _
b1011010110 I
b1011010101 M
b11110011000 T
#351
0%
0$
0"
0)
#352
1%
1$
b00000000000001101100 "!
1"
1)
b11110011000 _
b1011010101 I
b000000 '
b1011010100 M
b11110010111 T
#353
0%
0$
0"
0)
#354
1%
1$
b00000000000001101101 "!
1"
1)
b000001 '
b11110010111 _
b1011010100 I
b1011010011 M
b11110010110 T
#355
0%
0$
0"
0)
#356
1%
1$
b00000000000001101110 "!
1"
1)
b11110010110 _
b1011010011 I
b000000 '
b1011010010 M
b11110010101 T
#357
0%
0$
0"
0)
#358
1%
1$
b00000000000001101111 "!
1"
1)
b000001 '
b11110010101 _
b1011010010 I
b1011010001 M
b11110010100 T
#359
0%
0$
0"
0)
#360
1%
1$
b00000000000001110000 "!
1"
1)
b11110010100 _
b1011010001 I
b000000 '
b1011010000 M
b11110010011 T
#361
0%
0$
0"
0)
#362
1%
1$
b00000000000001110001 "!
1"
1)
b000001 '
b11110010011 _
b1011010000 I
b1011001111 M
b11110010010 T
#363
0%
0$
0"
0)
#364
1%
1$
b00000000000001110010 "!
1"
1)
b11110010010 _
b1011001111 I
b000000 '
b1011001110 M
b11110010001 T
#365
0%
0$
0"
0)
#366
1%
1$
b00000000000001110011 "!
1"
1)
b000001 '
b11110010001 _
b1011001110 I
b1011001101 M
b11110010000 T
#367
0%
0$
0"
0)
#368
1%
1$
b00000000000001110100 "!
1"
1)
b11110010000 _
b1011001101 I
b000000 '
b1011001100 M
b11110001111 T
#369
0%
0$
0"
0)
#370
1%
1$
b00000000000001110101 "!
1"
1)
b000001 '
b11110001111 _
b1011001100 I
b1011001011 M
b11110001110 T
#371
0%
0$
0"
0)
#372
1%
1$
b00000000000001110110 "!
1"
1)
b11110001110 _
b1011001011 I
b000000 '
b1011001010 M
b11110001101 T
#373
0%
0$
0"
0)
#374
1%
1$
b00000000000001110111 "!
1"
1)
b000001 '
b11110001101 _
b1011001010 I
b1011001001 M
b11110001100 T
#375
0%
0$
0"
0)
#376
1%
1$
b00000000000001111000 "!
1"
1)
b11110001100 _
b1011001001 I
b000000 '
b1011001000 M
b11110001011 T
#377
0%
0$
0"
0)
#378
1%
1$
b00000000000001111001 "!
1"
1)
b000001 '
b11110001011 _
b1011001000 I
b1011000111 M
b11110001010 T
#379
0%
0$
0"
0)
#380
1%
1$
b00000000000001111010 "!
1"
1)
b11110001010 _
b1011000111 I
b000000 '
b1011000110 M
b11110001001 T
#381
0%
0$
0"
0)
#382
1%
1$
b00000000000001111011 "!
1"
1)
b000001 '
b11110001001 _
b1011000110 I
b1011000101 M
b11110001000 T
#383
0%
0$
0"
0)
#384
1%
1$
b00000000000001111100 "!
1"
1)
b11110001000 _
b1011000101 I
b000000 '
b1011000100 M
b11110000111 T
#385
0%
0$
0"
0)
#386
1%
1$
b00000000000001111101 "!
1"
1)
b000001 '
b11110000111 _
b1011000100 I
b1011000011 M
b11110000110 T
#387
0%
0$
0"
0)
#388
1%
1$
b00000000000001111110 "!
1"
1)
b11110000110 _
b1011000011 I
b000000 '
b1011000010 M
b11110000101 T
#389
0%
0$
0"
0)
#390
1%
1$
b00000000000001111111 "!
1"
1)
b000001 '
b11110000101 _
b1011000010 I
b1011000001 M
b11110000100 T
#391
0%
0$
0"
0)
#392
1%
1$
b00000000000010000000 "!
1"
1)
b11110000100 _
b1011000001 I
b000000 '
b1011000000 M
b11110000011 T
#393
0%
0$
0"
0)
#394
1%
1$
b00000000000010000001 "!
1"
1)
b000001 '
b11110000011 _
b1011000000 I
b1010111111 M
b11110000010 T
#395
0%
0$
0"
0)
#396
1%
1$
b00000000000010000010 "!
1"
1)
b11110000010 _
b1010111111 I
b000000 '
b1010111110 M
b11110000001 T
#397
0%
0$
0"
0)
#398
1%
1$
b00000000000010000011 "!
1"
1)
b000001 '
b11110000001 _
b1010111110 I
b1010111101 M
b11110000000 T
#399
0%
0$
0"
0)
#400
1%
1$
b00000000000010000100 "!
1"
1)
b11110000000 _
b1010111101 I
b000000 '
b1010111100 M
b11101111111 T
#401
0%
0$
0"
0)
#402
1%
1$
b00000000000010000101 "!
1"
1)
b000001 '
b11101111111 _
b1010111100 I
b1010111011 M
b11101111110 T
#403
0%
0$
0"
0)
#404
1%
1$
b00000000000010000110 "!
1"
1)
b11101111110 _
b1010111011 I
b000000 '
b1010111010 M
b11101111101 T
#405
0%
0$
0"
0)
#406
1%
1$
b00000000000010000111 "!
1"
1)
b000001 '
b11101111101 _
b1010111010 I
b1010111001 M
b11101111100 T
#407
0%
0$
0"
0)
#408
1%
1$
b00000000000010001000 "!
1"
1)
b11101111100 _
b1010111001 I
b000000 '
b1010111000 M
b11101111011 T
#409
0%
0$
0"
0)
#410
1%
1$
b00000000000010001001 "!
1"
1)
b000001 '
b11101111011 _
b1010111000 I
b1010110111 M
b11101111010 T
#411
0%
0$
0"
0)
#412
1%
1$
b00000000000010001010 "!
1"
1)
b11101111010 _
b1010110111 I
b000000 '
b1010110110 M
b11101111001 T
#413
0%
0$
0"
0)
#414
1%
1$
b00000000000010001011 "!
1"
1)
b000001 '
b11101111001 _
b1010110110 I
b1010110101 M
b11101111000 T
#415
0%
0$
0"
0)
#416
1%
1$
b00000000000010001100 "!
1"
1)
b11101111000 _
b1010110101 I
b000000 '
b1010110100 M
b11101110111 T
#417
0%
0$
0"
0)
#418
1%
1$
b00000000000010001101 "!
1"
1)
b000001 '
b11101110111 _
b1010110100 I
b1010110011 M
b11101110110 T
#419
0%
0$
0"
0)
#420
1%
1$
b00000000000010001110 "!
1"
1)
b11101110110 _
b1010110011 I
b000000 '
b1010110010 M
b11101110101 T
#421
0%
0$
0"
0)
#422
1%
1$
b00000000000010001111 "!
1"
1)
b000001 '
b11101110101 _
b1010110010 I
b1010110001 M
b11101110100 T
#423
0%
0$
0"
0)
#424
1%
1$
b00000000000010010000 "!
1"
1)
b11101110100 _
b1010110001 I
b000000 '
b1010110000 M
b11101110011 T
#425
0%
0$
0"
0)
#426
1%
1$
b00000000000010010001 "!
1"
1)
b000001 '
b11101110011 _
b1010110000 I
b1010101111 M
b11101110010 T
#427
0%
0$
0"
0)
#428
1%
1$
b00000000000010010010 "!
1"
1)
b11101110010 _
b1010101111 I
b000000 '
b1010101110 M
b11101110001 T
#429
0%
0$
0"
0)
#430
1%
1$
b00000000000010010011 "!
1"
1)
b000001 '
b11101110001 _
b1010101110 I
b1010101101 M
b11101110000 T
#431
0%
0$
0"
0)
#432
1%
1$
b00000000000010010100 "!
1"
1)
b11101110000 _
b1010101101 I
b000000 '
b1010101100 M
b11101101111 T
#433
0%
0$
0"
0)
#434
1%
1$
b00000000000010010101 "!
1"
1)
b000001 '
b11101101111 _
b1010101100 I
b1010101011 M
b11101101110 T
#435
0%
0$
0"
0)
#436
1%
1$
b00000000000010010110 "!
1"
1)
b11101101110 _
b1010101011 I
b000000 '
b1010101010 M
b11101101101 T
#437
0%
0$
0"
0)
#438
1%
1$
b00000000000010010111 "!
1"
1)
b000001 '
b11101101101 _
b1010101010 I
b1010101001 M
b11101101100 T
#439
0%
0$
0"
0)
#440
1%
1$
b00000000000010011000 "!
1"
1)
b11101101100 _
b1010101001 I
b000000 '
b1010101000 M
b11101101011 T
#441
0%
0$
0"
0)
#442
1%
1$
b00000000000010011001 "!
1"
1)
b000001 '
b11101101011 _
b1010101000 I
b1010100111 M
b11101101010 T
#443
0%
0$
0"
0)
#444
1%
1$
b00000000000010011010 "!
1"
1)
b11101101010 _
b1010100111 I
b000000 '
b1010100110 M
b11101101001 T
#445
0%
0$
0"
0)
#446
1%
1$
b00000000000010011011 "!
1"
1)
b000001 '
b11101101001 _
b1010100110 I
b1010100101 M
b11101101000 T
#447
0%
0$
0"
0)
#448
1%
1$
b00000000000010011100 "!
1"
1)
b11101101000 _
b1010100101 I
b000000 '
b1010100100 M
b11101100111 T
#449
0%
0$
0"
0)
#450
1%
1$
b00000000000010011101 "!
1"
1)
b000001 '
b11101100111 _
b1010100100 I
b1010100011 M
b11101100110 T
#451
0%
0$
0"
0)
#452
1%
1$
b00000000000010011110 "!
1"
1)
b11101100110 _
b1010100011 I
b000000 '
b1010100010 M
b11101100101 T
#453
0%
0$
0"
0)
#454
1%
1$
b00000000000010011111 "!
1"
1)
b000001 '
b11101100101 _
b1010100010 I
b1010100001 M
b11101100100 T
#455
0%
0$
0"
0)
#456
1%
1$
b00000000000010100000 "!
1"
1)
b11101100100 _
b1010100001 I
b000000 '
b1010100000 M
b11101100011 T
#457
0%
0$
0"
0)
#458
1%
1$
b00000000000010100001 "!
1"
1)
b000001 '
b11101100011 _
b1010100000 I
b1010011111 M
b11101100010 T
#459
0%
0$
0"
0)
#460
1%
1$
b00000000000010100010 "!
1"
1)
b11101100010 _
b1010011111 I
b000000 '
b1010011110 M
b11101100001 T
#461
0%
0$
0"
0)
#462
1%
1$
b00000000000010100011 "!
1"
1)
b000001 '
b11101100001 _
b1010011110 I
b1010011101 M
b11101100000 T
#463
0%
0$
0"
0)
#464
1%
1$
b00000000000010100100 "!
1"
1)
b11101100000 _
b1010011101 I
b000000 '
b1010011100 M
b11101011111 T
#465
0%
0$
0"
0)
#466
1%
1$
b00000000000010100101 "!
1"
1)
b000001 '
b11101011111 _
b1010011100 I
b1010011011 M
b11101011110 T
#467
0%
0$
0"
0)
#468
1%
1$
b00000000000010100110 "!
1"
1)
b11101011110 _
b1010011011 I
b000000 '
b1010011010 M
b11101011101 T
#469
0%
0$
0"
0)
